simulation/qsim/SineWaveGenerator.msim.vcd
$comment
	File created using the following command:
		vcd file SineWaveGenerator.msim.vcd -direction
$end
$date
	Thu Feb 16 17:29:34 2023
$end
$version
	ModelSim Version 10.1d
$end
$timescale
	1ps
$end
$scope module SineWave_vlg_vec_tst $end
$var reg 8 ! ctt [7:0] $end
$var reg 32 " offsetValue [31:0] $end
$var wire 1 # wave [7] $end
$var wire 1 $ wave [6] $end
$var wire 1 % wave [5] $end
$var wire 1 & wave [4] $end
$var wire 1 ' wave [3] $end
$var wire 1 ( wave [2] $end
$var wire 1 ) wave [1] $end
$var wire 1 * wave [0] $end
$var wire 1 + sampler $end
$scope module i1 $end
$var wire 1 , gnd $end
$var wire 1 - vcc $end
$var wire 1 . unknown $end
$var tri1 1 / devclrn $end
$var tri1 1 0 devpor $end
$var tri1 1 1 devoe $end
$var wire 1 2 offsetValue[8]~input_o $end
$var wire 1 3 offsetValue[9]~input_o $end
$var wire 1 4 offsetValue[10]~input_o $end
$var wire 1 5 offsetValue[11]~input_o $end
$var wire 1 6 offsetValue[12]~input_o $end
$var wire 1 7 offsetValue[13]~input_o $end
$var wire 1 8 offsetValue[14]~input_o $end
$var wire 1 9 offsetValue[15]~input_o $end
$var wire 1 : offsetValue[16]~input_o $end
$var wire 1 ; offsetValue[17]~input_o $end
$var wire 1 < offsetValue[18]~input_o $end
$var wire 1 = offsetValue[19]~input_o $end
$var wire 1 > offsetValue[20]~input_o $end
$var wire 1 ? offsetValue[21]~input_o $end
$var wire 1 @ offsetValue[22]~input_o $end
$var wire 1 A offsetValue[23]~input_o $end
$var wire 1 B offsetValue[24]~input_o $end
$var wire 1 C offsetValue[25]~input_o $end
$var wire 1 D offsetValue[26]~input_o $end
$var wire 1 E offsetValue[27]~input_o $end
$var wire 1 F offsetValue[28]~input_o $end
$var wire 1 G offsetValue[29]~input_o $end
$var wire 1 H offsetValue[30]~input_o $end
$var wire 1 I offsetValue[31]~input_o $end
$var wire 1 J wave[0]~output_o $end
$var wire 1 K wave[1]~output_o $end
$var wire 1 L wave[2]~output_o $end
$var wire 1 M wave[3]~output_o $end
$var wire 1 N wave[4]~output_o $end
$var wire 1 O wave[5]~output_o $end
$var wire 1 P wave[6]~output_o $end
$var wire 1 Q wave[7]~output_o $end
$var wire 1 R offsetValue[4]~input_o $end
$var wire 1 S ctt[4]~input_o $end
$var wire 1 T ctt[3]~input_o $end
$var wire 1 U offsetValue[3]~input_o $end
$var wire 1 V offsetValue[2]~input_o $end
$var wire 1 W ctt[2]~input_o $end
$var wire 1 X offsetValue[1]~input_o $end
$var wire 1 Y ctt[1]~input_o $end
$var wire 1 Z ctt[0]~input_o $end
$var wire 1 [ offsetValue[0]~input_o $end
$var wire 1 \ Add0~1 $end
$var wire 1 ] Add0~3 $end
$var wire 1 ^ Add0~5 $end
$var wire 1 _ Add0~7 $end
$var wire 1 ` Add0~8_combout $end
$var wire 1 a offsetValue[7]~input_o $end
$var wire 1 b ctt[7]~input_o $end
$var wire 1 c ctt[6]~input_o $end
$var wire 1 d offsetValue[6]~input_o $end
$var wire 1 e ctt[5]~input_o $end
$var wire 1 f offsetValue[5]~input_o $end
$var wire 1 g Add0~9 $end
$var wire 1 h Add0~11 $end
$var wire 1 i Add0~13 $end
$var wire 1 j Add0~14_combout $end
$var wire 1 k Add0~4_combout $end
$var wire 1 l Add0~12_combout $end
$var wire 1 m Mux7~7_combout $end
$var wire 1 n Mux7~8_combout $end
$var wire 1 o Add0~0_combout $end
$var wire 1 p Add0~10_combout $end
$var wire 1 q Mux7~9_combout $end
$var wire 1 r Mux7~6_combout $end
$var wire 1 s Mux7~10_combout $end
$var wire 1 t Mux7~11_combout $end
$var wire 1 u Mux7~16_combout $end
$var wire 1 v Mux7~12_combout $end
$var wire 1 w Mux7~14_combout $end
$var wire 1 x Mux7~13_combout $end
$var wire 1 y Mux7~15_combout $end
$var wire 1 z Mux7~17_combout $end
$var wire 1 { Add0~2_combout $end
$var wire 1 | Add0~6_combout $end
$var wire 1 } Mux7~18_combout $end
$var wire 1 ~ Mux7~19_combout $end
$var wire 1 !! Mux7~21_combout $end
$var wire 1 "! Mux7~20_combout $end
$var wire 1 #! Mux7~22_combout $end
$var wire 1 $! Mux7~23_combout $end
$var wire 1 %! Mux7~24_combout $end
$var wire 1 &! Mux7~2_combout $end
$var wire 1 '! Mux7~1_combout $end
$var wire 1 (! Mux7~3_combout $end
$var wire 1 )! Mux7~0_combout $end
$var wire 1 *! Mux7~4_combout $end
$var wire 1 +! Mux7~5_combout $end
$var wire 1 ,! Mux7~25_combout $end
$var wire 1 -! Mux6~8_combout $end
$var wire 1 .! Mux6~7_combout $end
$var wire 1 /! Mux6~9_combout $end
$var wire 1 0! Mux6~6_combout $end
$var wire 1 1! Mux6~10_combout $end
$var wire 1 2! Mux6~11_combout $end
$var wire 1 3! Mux6~14_combout $end
$var wire 1 4! Mux6~13_combout $end
$var wire 1 5! Mux6~15_combout $end
$var wire 1 6! Mux6~12_combout $end
$var wire 1 7! Mux6~16_combout $end
$var wire 1 8! Mux6~17_combout $end
$var wire 1 9! Mux6~18_combout $end
$var wire 1 :! Mux6~23_combout $end
$var wire 1 ;! Mux6~20_combout $end
$var wire 1 <! Mux6~21_combout $end
$var wire 1 =! Mux6~22_combout $end
$var wire 1 >! Mux6~19_combout $end
$var wire 1 ?! Mux6~24_combout $end
$var wire 1 @! Mux6~1_combout $end
$var wire 1 A! Mux6~2_combout $end
$var wire 1 B! Mux6~3_combout $end
$var wire 1 C! Mux6~4_combout $end
$var wire 1 D! Mux6~0_combout $end
$var wire 1 E! Mux6~5_combout $end
$var wire 1 F! Mux6~25_combout $end
$var wire 1 G! Mux5~0_combout $end
$var wire 1 H! Mux5~1_combout $end
$var wire 1 I! Mux5~2_combout $end
$var wire 1 J! Mux5~3_combout $end
$var wire 1 K! Mux5~4_combout $end
$var wire 1 L! Mux5~5_combout $end
$var wire 1 M! Mux5~19_combout $end
$var wire 1 N! Mux5~20_combout $end
$var wire 1 O! Mux5~23_combout $end
$var wire 1 P! Mux5~24_combout $end
$var wire 1 Q! Mux5~21_combout $end
$var wire 1 R! Mux5~10_combout $end
$var wire 1 S! Mux5~6_combout $end
$var wire 1 T! Mux5~8_combout $end
$var wire 1 U! Mux5~7_combout $end
$var wire 1 V! Mux5~9_combout $end
$var wire 1 W! Mux5~11_combout $end
$var wire 1 X! Mux5~12_combout $end
$var wire 1 Y! Mux5~16_combout $end
$var wire 1 Z! Mux5~13_combout $end
$var wire 1 [! Mux5~14_combout $end
$var wire 1 \! Mux5~15_combout $end
$var wire 1 ]! Mux5~17_combout $end
$var wire 1 ^! Mux5~18_combout $end
$var wire 1 _! Mux5~22_combout $end
$var wire 1 `! Mux4~16_combout $end
$var wire 1 a! Mux4~12_combout $end
$var wire 1 b! Mux4~14_combout $end
$var wire 1 c! Mux4~13_combout $end
$var wire 1 d! Mux4~15_combout $end
$var wire 1 e! Mux4~17_combout $end
$var wire 1 f! Mux4~7_combout $end
$var wire 1 g! Mux4~8_combout $end
$var wire 1 h! Mux4~9_combout $end
$var wire 1 i! Mux4~10_combout $end
$var wire 1 j! Mux4~6_combout $end
$var wire 1 k! Mux4~11_combout $end
$var wire 1 l! Mux4~18_combout $end
$var wire 1 m! Mux4~0_combout $end
$var wire 1 n! Mux4~2_combout $end
$var wire 1 o! Mux4~1_combout $end
$var wire 1 p! Mux4~3_combout $end
$var wire 1 q! Mux4~4_combout $end
$var wire 1 r! Mux4~5_combout $end
$var wire 1 s! Mux4~19_combout $end
$var wire 1 t! Mux4~23_combout $end
$var wire 1 u! Mux4~20_combout $end
$var wire 1 v! Mux4~21_combout $end
$var wire 1 w! Mux4~22_combout $end
$var wire 1 x! Mux4~24_combout $end
$var wire 1 y! Mux4~25_combout $end
$var wire 1 z! Mux3~7_combout $end
$var wire 1 {! Mux3~5_combout $end
$var wire 1 |! Mux3~4_combout $end
$var wire 1 }! Mux3~6_combout $end
$var wire 1 ~! Mux3~8_combout $end
$var wire 1 !" Mux3~2_combout $end
$var wire 1 "" Mux3~3_combout $end
$var wire 1 #" Mux3~9_combout $end
$var wire 1 $" Mux3~11_combout $end
$var wire 1 %" Mux3~10_combout $end
$var wire 1 &" Mux3~12_combout $end
$var wire 1 '" Mux3~13_combout $end
$var wire 1 (" Mux3~14_combout $end
$var wire 1 )" Mux3~0_combout $end
$var wire 1 *" Mux3~1_combout $end
$var wire 1 +" Mux3~15_combout $end
$var wire 1 ," Mux2~14_combout $end
$var wire 1 -" Mux2~15_combout $end
$var wire 1 ." Mux2~11_combout $end
$var wire 1 /" Mux2~10_combout $end
$var wire 1 0" Mux2~12_combout $end
$var wire 1 1" Mux2~8_combout $end
$var wire 1 2" Mux2~7_combout $end
$var wire 1 3" Mux2~9_combout $end
$var wire 1 4" Mux2~13_combout $end
$var wire 1 5" Mux2~17_combout $end
$var wire 1 6" Mux2~18_combout $end
$var wire 1 7" Mux2~16_combout $end
$var wire 1 8" Mux1~0_combout $end
$var wire 1 9" Mux1~1_combout $end
$var wire 1 :" Mux1~3_combout $end
$var wire 1 ;" Mux1~2_combout $end
$var wire 1 <" Mux1~4_combout $end
$var wire 1 =" Mux0~1_combout $end
$var wire 1 >" Mux0~0_combout $end
$var wire 1 ?" Mux0~2_combout $end
$upscope $end
$upscope $end
$enddefinitions $end
#0
$dumpvars
b0 !
b100000 "
1*
1)
1(
1'
0&
1%
0$
1#
x+
0,
1-
x.
1/
10
11
02
03
04
05
06
07
08
09
0:
0;
0<
0=
0>
0?
0@
0A
0B
0C
0D
0E
0F
0G
0H
0I
1J
1K
1L
1M
0N
1O
0P
1Q
0R
0S
0T
0U
0V
0W
0X
0Y
0Z
0[
0\
1]
0^
1_
0`
0a
0b
0c
0d
0e
1f
0g
1h
0i
0j
0k
0l
0m
0n
0o
1p
0q
0r
0s
1t
1u
1v
0w
0x
1y
1z
0{
0|
1}
0~
1!!
0"!
1#!
0$!
1%!
0&!
0'!
0(!
0)!
0*!
0+!
1,!
1-!
0.!
1/!
00!
11!
12!
03!
04!
15!
06!
07!
18!
19!
0:!
0;!
0<!
0=!
0>!
0?!
0@!
0A!
0B!
0C!
0D!
0E!
1F!
0G!
0H!
0I!
1J!
1K!
1L!
0M!
0N!
1O!
1P!
1Q!
1R!
1S!
1T!
0U!
1V!
1W!
0X!
0Y!
0Z!
0[!
1\!
1]!
1^!
1_!
0`!
1a!
1b!
1c!
1d!
1e!
0f!
0g!
1h!
0i!
0j!
1k!
1l!
0m!
0n!
0o!
0p!
0q!
1r!
0s!
0t!
0u!
0v!
0w!
0x!
1y!
0z!
0{!
0|!
0}!
0~!
0!"
1""
0#"
0$"
0%"
0&"
0'"
0("
1)"
0*"
0+"
0,"
1-"
0."
1/"
10"
01"
12"
13"
14"
05"
16"
17"
08"
09"
0:"
1;"
0<"
0="
1>"
1?"
$end
#10000
b1 !
1Z
0+
1o
1'"
1z!
1v!
1s!
0b!
1`!
1[!
1Z!
1X!
0T!
1N!
1I!
1G!
1B!
16!
14!
13!
0/!
1(!
0#!
1q
1~!
1x!
0d!
0\!
0V!
0J!
1E!
05!
02!
1+!
0%!
0t
1#"
0e!
0]!
0W!
0L!
08!
0l!
0^!
09!
1+"
1N
1&
0y!
0_!
0F!
0M
0L
0K
0'
0(
0)
#20000
b11 !
b10 !
0Z
1Y
1+
0o
1{
1%"
1g!
1b!
0`!
0[!
0X!
1U!
0R!
0B!
1>!
1;!
1:!
17!
04!
1/!
0(!
1#!
0q
1j!
0P!
1D!
1C!
1@!
0}
0E!
1=!
15!
12!
0+!
1%!
1t
0Q!
0,!
1?!
18!
1}
0J
0*
19!
1,!
1J
1*
1F!
1K
1)
#30000
b11 !
1Z
0+
1o
15"
0)"
1u!
1o!
1n!
1f!
0b!
1`!
0Z!
1Y!
0S!
1R!
0N!
0;!
0:!
07!
06!
14!
03!
0/!
1(!
0#!
1q
0h!
1\!
0=!
05!
02!
1+!
0%!
0t
0k!
1]!
0?!
08!
0}
1^!
09!
0,!
0J
0*
1_!
0F!
1L
0K
1(
0)
#40000
b111 !
b101 !
b100 !
0Z
0Y
1W
1+
0o
0{
1k
1)"
0'"
0%"
0z!
0v!
1m!
0g!
0f!
0c!
0a!
0Y!
0U!
1T!
1S!
0I!
0G!
1;!
1:!
16!
04!
13!
1/!
0(!
0y
0q
0j!
1P!
0C!
1A!
1}
0#"
1k!
1h!
0^!
1*!
1)!
1&!
1%!
0z
1s
0+"
0~!
0r!
1V!
1J!
1=!
15!
12!
1t
0k!
1Q!
1B!
0}
0N
0&
1,!
1+"
0_!
1W!
1L!
1?!
18!
1E!
1J
1N
0L
1*
1&
0(
0,!
1^!
19!
0J
0*
1_!
1F!
1L
1K
1(
1)
#50000
b101 !
1Z
0+
1o
11"
1'"
1z!
1b!
1[!
1Z!
1X!
0T!
1N!
1I!
1G!
0B!
0>!
0;!
0:!
17!
06!
14!
03!
0/!
1(!
1#!
1y
1q
1~!
1d!
0\!
0V!
0J!
0E!
0=!
05!
02!
0+!
0%!
1e!
0]!
0W!
0L!
0?!
08!
1l!
0^!
09!
1y!
0_!
0F!
1M
0L
0K
1'
0(
0)
#60000
b111 !
b110 !
0Z
1Y
1+
0o
1{
1%"
0n!
1g!
0b!
0[!
0X!
1U!
0R!
1B!
1;!
1:!
16!
1/!
0(!
0#!
0y
0q
1j!
0d!
0P!
0D!
1C!
0@!
01!
10!
1}
1E!
1=!
12!
1+!
1%!
0Q!
1,!
1?!
1J
1*
#70000
b111 !
1Z
0+
1o
0)"
0u!
0o!
1f!
1b!
0Z!
1Y!
0S!
1R!
0N!
1>!
1<!
0;!
0:!
07!
04!
13!
0/!
1(!
1#!
1y
1q
1\!
0=!
15!
02!
0+!
0%!
1]!
0?!
18!
19!
1F!
1K
1)
#80000
b1111 !
b1011 !
b1001 !
b1000 !
0Z
0Y
0W
1T
1+
0o
0{
0k
1|
05"
1)"
0%"
1$"
1|!
1{!
0s!
0m!
0g!
0f!
1c!
1a!
0`!
0Y!
0U!
1T!
1S!
0O!
1N!
1M!
0I!
0G!
0B!
0>!
0<!
06!
03!
0(!
0q
02"
0j!
0e!
1d!
1P!
0C!
0A!
11!
00!
0}
1#"
1k!
0h!
1^!
0*!
0)!
0&!
1%!
1z
0s
1*"
0l!
0]!
1W!
1L!
0E!
1=!
08!
0+"
0,!
0x!
1r!
1h!
1e!
1]!
0W!
0P!
1Q!
0L!
1?!
03"
0k!
1l!
12!
0^!
09!
0N
0J
0&
0*
1+"
1_!
0y!
1k!
0l!
1^!
0Q!
1N
1L
0M
1&
1(
0'
1y!
0_!
0F!
1l!
1M
0L
0K
1'
0(
0)
0y!
1_!
0M
1L
0'
1(
1y!
1M
1'
#90000
b1001 !
1Z
0+
1o
1v!
1s!
0b!
1`!
1[!
1Z!
1X!
0T!
1I!
1G!
1B!
16!
14!
13!
1/!
1(!
0#!
1q
1x!
0d!
1L!
1E!
02!
1+!
0%!
0t
0e!
1,!
1J
1*
#100000
b1011 !
b1010 !
0Z
1Y
1+
0o
1{
0{!
1g!
1b!
0`!
0[!
0X!
1U!
0R!
0N!
0B!
1>!
1;!
1:!
17!
04!
0/!
0(!
1#!
0q
1="
18"
0/"
1j!
1D!
1C!
1@!
1}
0?!
18!
12!
0+!
1%!
1t
0,!
19!
0J
0*
1,!
1J
1*
1F!
1K
1)
#110000
b1011 !
1Z
0+
1o
1."
0)"
0z!
1u!
1o!
1n!
1f!
0b!
1`!
0Z!
1Y!
0S!
1R!
0M!
1B!
0;!
0:!
07!
06!
14!
03!
1/!
1(!
0#!
1q
19"
00"
0~!
0h!
0]!
1W!
0E!
1?!
08!
02!
1+!
0%!
0t
0;"
1:"
04"
0#"
0k!
0^!
09!
0,!
0l!
0J
0*
1<"
07"
0+"
0_!
0F!
1P
0O
0N
0L
0K
1$
0%
0&
0(
0)
0y!
0M
0'
#120000
b1111 !
b1101 !
b1100 !
0Z
0Y
1W
1+
0o
0{
1k
1)"
1{!
1z!
0v!
1m!
0g!
0f!
0c!
0a!
0Y!
0U!
1T!
1S!
1N!
1M!
0I!
0G!
0B!
1;!
1:!
16!
04!
13!
0/!
0(!
0y
0q
0j!
0C!
1A!
0}
1k!
1h!
1^!
1*!
1)!
1&!
1%!
0z
1s
1~!
0r!
1]!
0W!
0L!
1E!
0?!
12!
1t
0k!
1l!
1,!
1_!
0^!
0l!
1J
1L
1*
1(
1y!
1M
1'
0_!
0y!
0L
0M
0(
0'
#130000
b1101 !
1Z
0+
1o
1,"
1b!
1[!
1Z!
1X!
0T!
1I!
1G!
1B!
0>!
0;!
0:!
17!
06!
14!
03!
1/!
1(!
1#!
1y
1q
1d!
1L!
1?!
18!
02!
0+!
0%!
1e!
19!
0,!
0J
0*
1F!
1K
1)
#140000
b1111 !
b1110 !
0Z
1Y
1+
0o
1{
0{!
0n!
1g!
0b!
0[!
0X!
1U!
0R!
0N!
0B!
1;!
1:!
16!
0/!
0(!
0#!
0y
0q
1j!
0d!
0D!
1C!
0@!
01!
10!
1}
0E!
0?!
1+!
1%!
1,!
1J
1*
#150000
b1111 !
1Z
0+
1o
15"
0)"
0z!
0u!
0o!
1f!
1b!
0Z!
1Y!
0S!
1R!
0M!
1B!
1>!
1<!
0;!
0:!
07!
04!
13!
1/!
1(!
1#!
1y
1q
0~!
0]!
1W!
1?!
08!
12!
0+!
0%!
1^!
09!
0,!
0J
0*
1_!
0F!
1L
0K
1(
0)
#160000
b11111 !
b10111 !
b10011 !
b10001 !
b10000 !
0Z
0Y
0W
0T
1S
1+
0o
0{
0k
0|
1`
05"
01"
0."
0,"
1)"
0'"
0$"
0|!
0s!
0m!
1i!
0f!
1c!
1a!
0`!
1O!
1N!
1M!
0I!
0G!
0>!
0<!
1:!
17!
14!
03!
0(!
0q
0="
08"
0e!
1d!
1D!
1.!
0-!
0}
1k!
0h!
0^!
1'!
1%!
1z
0s
1m
0*"
1l!
1]!
0W!
0L!
1J!
1E!
0=!
18!
0>"
1w!
1p!
1$!
0!!
1x
0v
0u
1,!
0?"
09"
0-"
0x!
0k!
1h!
0d!
1e!
1P!
1L!
0?!
05!
1+!
0l!
0/!
1}
1^!
19!
0#!
1J
0Q
1*
0#
1?"
0,!
0_!
1y!
1l!
1k!
0e!
1Q!
08!
02!
0%!
1Q
0J
0L
1M
1#
0*
0(
1'
0y!
1_!
1F!
1,!
0l!
09!
0M
1L
1K
1J
0'
1(
1)
1*
1y!
1M
1'
0y!
0F!
0M
0K
0'
0)
#170000
b10001 !
1Z
0+
1o
1'"
1z!
1v!
1s!
0b!
1`!
1[!
0Y!
0O!
0N!
1I!
1G!
1>!
1<!
0:!
07!
06!
04!
13!
1/!
1(!
0y
1q
1~!
0P!
15!
12!
0+!
0z
0t
0Q!
18!
0}
19!
0,!
0J
0*
1F!
1K
1)
#180000
b10011 !
b10010 !
0Z
1Y
1+
0o
1{
1%"
1b!
0`!
1X!
0U!
0R!
1O!
1N!
0M!
1;!
16!
03!
0/!
0(!
1y
0q
1d!
0D!
0A!
1@!
1=!
02!
1+!
1z
1t
0B!
1?!
1}
0E!
1,!
1J
1*
#190000
b10011 !
1Z
0+
1o
15"
0)"
1u!
1o!
1n!
0b!
1`!
0[!
1Z!
0O!
0>!
0<!
0;!
1:!
06!
14!
13!
1/!
1(!
0y
1q
1e!
0\!
0=!
05!
12!
0+!
0z
0t
1l!
0]!
0?!
08!
0}
0^!
09!
1y!
0,!
1M
0J
1'
0*
0_!
0F!
0L
0K
0(
0)
#200000
b10111 !
b10101 !
b10100 !
0Z
0Y
1W
1+
0o
0{
1k
1)"
0'"
0%"
0z!
0v!
1m!
0c!
0a!
0Z!
1Y!
0X!
1U!
1R!
1O!
1M!
0I!
0G!
1>!
1;!
0:!
16!
03!
0/!
0(!
0q
0d!
0@!
11!
00!
0.!
1-!
1#"
0*!
1%!
1z
1s
1r
1n
0m
1+"
0~!
1d!
0e!
1\!
1P!
1=!
02!
1+!
1/!
1}
1N
1&
0+"
1e!
0l!
1]!
1Q!
1?!
12!
0N
0&
1,!
1l!
1J
1*
0y!
0M
0'
1y!
1M
1'
#210000
b10101 !
1Z
0+
1o
11"
1'"
1z!
1b!
1[!
0Y!
0O!
0N!
1I!
1G!
1B!
0>!
1<!
0;!
1:!
06!
13!
0/!
1(!
1#!
1y
1q
1~!
0P!
1E!
0=!
02!
1t
0Q!
0?!
#220000
b10111 !
b10110 !
0Z
1Y
1+
0o
1{
1%"
0n!
0b!
1X!
0U!
0R!
1O!
1N!
0M!
0B!
1>!
0<!
16!
04!
03!
1/!
0(!
0#!
0y
0q
1="
12"
1A!
0E!
15!
12!
0t
13"
1B!
18!
0}
1E!
19!
0,!
0J
0*
1F!
1K
1)
#230000
b10111 !
1Z
0+
1o
0)"
0u!
0o!
1b!
0[!
1Z!
0O!
0>!
1;!
0:!
0/!
1(!
1#!
1y
1q
0\!
1=!
02!
1t
0]!
1?!
1}
1,!
1J
1*
#240000
b11111 !
b11011 !
b11001 !
b11000 !
0Z
0Y
0W
1T
1+
0o
0{
0k
1|
05"
1)"
0%"
1$"
1|!
1{!
0s!
0m!
1c!
1a!
0`!
0Z!
1Y!
0X!
1U!
1R!
0N!
0I!
0G!
0B!
0;!
1:!
17!
14!
0(!
0#!
0q
1/"
1D!
01!
10!
1.!
0-!
0}
0#"
1*!
0s
0r
0n
1m
1*"
1]!
1\!
1W!
0L!
0E!
08!
12!
1+"
0d!
0]!
1E!
0?!
18!
0%!
02!
1^!
09!
1N
1&
0+"
0e!
0^!
19!
0N
0&
0F!
1_!
0K
1L
0)
1(
0_!
1F!
0L
1K
0(
1)
#250000
b11001 !
1Z
0+
1o
1v!
1s!
0b!
1`!
1[!
0Y!
1N!
1I!
1G!
1B!
1>!
1<!
0:!
07!
06!
04!
13!
1/!
1(!
0y
1q
1]!
0E!
1?!
08!
12!
0+!
0z
0t
1^!
09!
0,!
0J
0*
1_!
0F!
1L
0K
1(
0)
#260000
b11011 !
b11010 !
0Z
1Y
1+
0o
1{
0{!
1b!
0`!
1X!
0U!
0R!
0N!
1M!
0B!
1;!
16!
03!
0/!
0(!
1y
0q
18"
1d!
0D!
0A!
1@!
1}
02!
1+!
1z
1t
#270000
b11011 !
1Z
0+
1o
1."
0)"
0z!
1u!
1o!
1n!
0b!
1`!
0[!
1Z!
1B!
0>!
0<!
0;!
1:!
06!
14!
13!
1/!
1(!
0y
1q
19"
0~!
1e!
0?!
12!
0+!
0z
0t
#280000
b11111 !
b11101 !
b11100 !
0Z
0Y
1W
1+
0o
0{
1k
1)"
1{!
1z!
0v!
1m!
0c!
0a!
0Z!
1Y!
0X!
1U!
1R!
0M!
0I!
0G!
0B!
1>!
1;!
0:!
16!
03!
0/!
0(!
0q
0d!
0@!
11!
00!
0.!
1-!
0}
1#"
0*!
1%!
1z
1s
1r
1n
0m
1~!
1d!
0e!
0]!
1?!
1+!
1e!
1,!
1J
1*
#290000
b11101 !
1Z
0+
1o
1,"
1b!
1[!
0Y!
1N!
1I!
1G!
1B!
0>!
1<!
0;!
1:!
06!
13!
1/!
1(!
1#!
1y
1q
1-"
1]!
0?!
02!
1t
#300000
b11111 !
b11110 !
0Z
1Y
1+
0o
1{
0{!
0n!
0b!
1X!
0U!
0R!
0N!
1M!
0B!
1>!
0<!
16!
04!
03!
0/!
0(!
0#!
0y
0q
1A!
1}
12!
0t
#310000
b11111 !
1Z
0+
1o
15"
0)"
0z!
0u!
0o!
1b!
0[!
1Z!
1B!
0>!
1;!
0:!
1/!
1(!
1#!
1y
1q
0~!
1?!
02!
1t
#320000
b111111 !
b101111 !
b100111 !
b100011 !
b100001 !
b100000 !
0Z
0Y
0W
0T
0S
1e
1+
0o
0{
0k
0|
0`
0h
0p
05"
01"
0."
0,"
0'"
0$"
0|!
0s!
0m!
0i!
0g!
0b!
0`!
0Z!
0X!
0M!
0K!
0I!
0G!
0;!
06!
0(!
0#!
0="
08"
0j!
0C!
0A!
01!
0-!
0#"
0h!
0)!
0'!
0&!
0s
0r
0n
0*"
0W!
1L!
0J!
1E!
0=!
18!
12!
0:"
03"
10"
0-"
0w!
0p!
0$!
0x
1l
1x!
1r!
1+"
06"
09"
0x!
0r!
0k!
1h!
0d!
0L!
1J!
0+!
0%!
0B!
0/!
1(!
0q
0?!
19!
1>"
1:"
1*"
1u!
1s!
1m!
1j!
1c!
1b!
1V!
1K!
1I!
1H!
1*!
1)!
1'!
1"!
1v
1u
1s
1n
1m
1N
1&
0?"
0+"
1k!
0e!
1L!
0E!
02!
1+!
0t
1d!
1W!
0J!
1q
0Q
0N
0#
0&
1F!
1?"
0l!
09!
1e!
0L!
1t
1K
1Q
1)
1#
1l!
0y!
0F!
0M
0K
0'
0)
1y!
1M
1'
#330000
b100001 !
1Z
0+
1o
1'"
1!"
1z!
0s!
1N!
0K!
1B!
16!
14!
13!
0(!
1#!
1("
1E!
05!
0+!
1%!
08!
#340000
b100011 !
b100010 !
0Z
1Y
1+
0o
1{
1%"
1t!
1Z!
1Y!
1T!
1S!
1R!
1G!
0B!
1>!
1;!
1:!
17!
04!
1(!
0#!
0j!
0e!
0d!
11!
0E!
1+!
0%!
0l!
1e!
1l!
0y!
0M
0'
1y!
1M
1'
#350000
b100011 !
1Z
0+
1o
15"
1q!
1i!
1U!
0T!
0S!
0N!
0H!
1B!
0;!
0:!
07!
06!
14!
03!
0(!
1#!
16"
0V!
1E!
15!
0+!
1%!
0W!
18!
#360000
b100111 !
b100101 !
b100100 !
0Z
0Y
1W
1+
0o
0{
1k
0'"
0%"
0!"
0z!
0u!
1s!
0i!
1`!
0Z!
0Y!
0U!
0R!
1K!
1H!
0G!
0B!
1;!
1:!
16!
04!
13!
1(!
0#!
0y
1j!
0e!
1d!
1D!
1C!
1A!
1@!
10!
0h!
0^!
0)!
1&!
0%!
0z
0n
0("
1e!
1V!
0E!
05!
1+!
1%!
0l!
1B!
0(!
0}
0q
0_!
1l!
1W!
08!
1E!
0+!
0t
0L
0(
0,!
0y!
1^!
0J
0M
0*
0'
1y!
1M
1'
1_!
1L
1(
#370000
b100101 !
1Z
0+
1o
11"
1'"
1!"
1z!
0t!
0m!
0c!
1N!
0K!
0B!
0>!
0;!
0:!
17!
06!
14!
03!
1#!
1y
1q
19"
1("
0E!
15!
0%!
1t
18!
#380000
b100111 !
b100110 !
0Z
1Y
1+
0o
1{
1%"
0q!
1o!
1c!
1Z!
1Y!
1T!
1S!
1R!
1G!
1B!
1;!
1:!
16!
0#!
0y
0q
18"
0j!
0d!
01!
00!
1.!
1}
1E!
1%!
0t
0k!
1,!
0}
1J
1*
0,!
0J
0*
#390000
b100111 !
1Z
0+
1o
1v!
1i!
0c!
1U!
0T!
0S!
0N!
0H!
0B!
1>!
1<!
0;!
0:!
07!
04!
13!
1/!
1#!
1y
1q
1w!
0V!
0E!
1=!
05!
12!
0%!
1t
1x!
0W!
1?!
08!
19!
1}
0^!
1F!
1,!
1K
1J
1)
1*
0_!
0L
0(
#400000
b101111 !
b101011 !
b101001 !
b101000 !
0Z
0Y
0W
1T
1+
0o
0{
0k
1|
05"
0%"
1$"
0!"
1|!
1{!
0v!
1u!
0o!
1m!
0i!
1c!
0`!
0Z!
0Y!
0U!
0R!
1O!
1N!
1M!
1K!
1H!
0G!
0>!
0<!
06!
03!
0/!
0#!
0q
02"
1j!
0e!
1d!
0D!
0C!
0A!
0@!
0.!
0}
1h!
1^!
1)!
0&!
1%!
1z
1n
0""
0l!
0]!
0\!
1W!
1V!
1L!
1E!
0=!
0,!
0w!
1k!
1e!
0W!
1Q!
0L!
18!
0%!
0t
0E!
1(!
1q
0^!
0J
0*
1_!
0y!
0x!
1l!
1+!
1t
1L
0M
1(
0'
0_!
0L
0(
1y!
1,!
1M
1J
1'
1*
#410000
b101001 !
1Z
0+
1o
1!"
0s!
0K!
1B!
16!
14!
13!
1/!
0(!
1#!
1E!
08!
0+!
1%!
0,!
0J
0*
#420000
b101011 !
b101010 !
0Z
1Y
1+
0o
1{
0{!
1t!
1Z!
1Y!
1T!
1S!
1R!
0N!
1G!
0B!
1>!
1;!
1:!
17!
04!
0/!
1(!
0#!
1="
0/"
0j!
0e!
0d!
11!
1}
1W!
1L!
0E!
0?!
1+!
0%!
00"
1e!
1,!
1J
1*
0,!
0J
0*
#430000
b101011 !
1Z
0+
1o
1."
0z!
1q!
1i!
1U!
0T!
0S!
0M!
0H!
1B!
0;!
0:!
07!
06!
14!
03!
1/!
0(!
1#!
0Q!
1E!
18!
02!
0+!
1%!
09!
1,!
1J
1*
0F!
0K
0)
#440000
b101111 !
b101101 !
b101100 !
0Z
0Y
1W
1+
0o
0{
1k
0!"
1{!
1z!
0u!
1s!
0i!
1`!
0Z!
0Y!
0U!
0R!
1N!
1M!
1K!
1H!
0G!
0B!
1;!
1:!
16!
04!
13!
0/!
1(!
0#!
0y
1j!
0e!
1d!
1D!
1C!
1A!
1@!
10!
0}
0h!
1^!
0)!
1&!
0%!
0z
0n
1e!
0W!
1Q!
0L!
08!
1+!
1%!
0(!
0q
0,!
1_!
0^!
0+!
0t
0J
1L
0*
1(
1,!
1J
1*
0_!
0,!
0L
0J
0(
0*
#450000
b101101 !
1Z
0+
1o
1,"
1!"
0t!
0m!
0c!
0K!
1B!
0>!
0;!
0:!
17!
06!
14!
03!
1/!
1#!
1y
1q
0E!
1?!
18!
0%!
1t
